…
### Step 2 c.) Double check unique terms

``` r
Tidy_Time %>% 
  group_by(Year) %>%
  summarise(count = n())
```

    ## # A tibble: 53 × 2
    ##    Year  count
    ##    <chr> <int>
    ##  1 1970      1
    ##  2 1973      5
    ##  3 1974      4
    ##  4 1975      6
    ##  5 1976      8
    ##  6 1977     11
    ##  7 1978     24
    ##  8 1979     23
    ##  9 1980     27
    ## 10 1981     28
    ## # ℹ 43 more rows
…
